Daily inflation for used vehicles in Hungary
…
No censored price spells (Cavallo and Rigobon 2016)

Advantages of Online-based Inflation Calculation

Cost reduction compared to traditional methods

No censored price spells (Cavallo and Rigobon 2016)

Bargaining

Bargaining may cause some inaccuracy in our index since we derive it from offer prices. But if this amount is time-invariant, then the comparison of the price level between periods (inflation) may remain accurate.

Cleaning Steps and Variables

#> # A tibble: 470,298 × 121
#>   id     date        price brand allapot kivitel ajtok_szama
#>   <chr>  <date>      <int> <fct> <fct>   <fct>   <fct>      
#> 1 10020… 2021-11-05 1.06e7 bmw   Normál  Városi… 5          
#> 2 10058… 2021-12-31 1.00e6 opel  Normál  Kombi   5          
#> 3 10126… 2021-07-13 1.30e6 opel  Kitűnő  Egyterű 5          
#> 4 10316… 2021-07-13 8.99e5 citr… Normál  Egyterű 5          
#> # ℹ 470,294 more rows
#> # ℹ 114 more variables: szin <fct>, karpit_szine_1 <fct>,
#> #   uzemanyag <fct>, henger_elrendezes <fct>, hajtas <fct>,
#> #   sebessegvalto_fajtaja <fct>, okmanyok_jellege <fct>,
#> #   muszaki_vizsga_ervenyes <fct>, klima_fajtaja <fct>,
#> #   karpit_szine_2 <fct>, teli_gumi_meret <fct>,
#> #   teto <fct>, hatso_nyari_gumi_meret <fct>, …
…
