A Compass to understanding the Hungarian economy of the 19th-20th centuries from unstructed data
…
 @ book: Compass 1900, Finanzielles JB, Österreich -- Österreich-Ungarn

 @ text_items: ...

 @ text_items_coords: ...

 @ lines: ...

 @ dims: ...

Page@text_items_coords

# A tibble: 693 × 5
    xmin  xmax  ymin  ymax text             
   <int> <int> <int> <int> <chr>            
 1    99   107   498   504 57.              
 2   111   166   498   504 Pfandleih-Anstalt
 3   171   176   498   504 in               
 4   181   196   498   504 Stadt            
 5   201   219   498   504 Steyr.           
 6    12    23   497   503 168              
 7    37    42   477   483 A                
 8    43    46   477   483 c                
 9    47    48   477   483 t                
10    50    51   477   483 i                
# ℹ 683 more rows
…
