slide
…
The magnitude of the sentiment score can also indicate the intensity of the sentiment.

Sentiment Analysis 😏

An example

“Market sentiment shifted with concerns over rising inflation, causing uncertainty and apprehension among traders. This news triggered a sell-off in certain sectors, with investors adopting a cautious approach. Amid this backdrop, the market exhibited volatility, reflecting the emotional rollercoaster of market participants. Sentiment plays a crucial role in determining market direction, as investors feelings and emotions can sway their investment decisions. Stay tuned for updates on how sentiment continues to impact the stock market.”

Sentiment Analysis 😏

The bing sentiment dictionary

tidytext::get_sentiments("bing")
#> # A tibble: 6,786 × 2
#>    word        sentiment
#>    <chr>       <chr>    
#>  1 2-faces     negative 
#>  2 abnormal    negative 
#>  3 abolish     negative 
#>  4 abominable  negative 
#>  5 abominably  negative 
#>  6 abominate   negative 
#>  7 abomination negative 
#>  8 abort       negative 
#>  9 aborted     negative 
#> 10 aborts      negative 
#> # ℹ 6,776 more rows
…
