slide
…
Tuning

Issue

Traditional cross-validation is inappropriate in the presence of inflation.

Solution

Observations of each day were split into an analysis (3/4) and an assessment set (1/4) using stratified sampling by the price and we tuned the models to reach lowest average RMSE (on the log of the the prices).

Tuning

#> # A tibble: 230 × 2
#>    splits             id        
#>    <list>             <chr>     
#>  1 <split [2101/702]> 2021-05-25
#>  2 <split [1841/616]> 2021-05-26
#>  3 <split [2411/804]> 2021-05-27
#>  4 <split [2053/688]> 2021-05-28
#>  5 <split [1358/456]> 2021-05-29
#>  6 <split [582/195]>  2021-05-30
#>  7 <split [2323/777]> 2021-05-31
#>  8 <split [1513/508]> 2021-06-01
#>  9 <split [1822/609]> 2021-06-02
#> 10 <split [1540/516]> 2021-06-03
#> # ℹ 220 more rows
…
Influence of the sample size

#> # A tibble: 111 × 2
#>    tw_id      data                 
#>    <date>     <list>               
#>  1 2021-05-26 <tibble [5,260 × 73]>
#>  2 2021-05-27 <tibble [3,215 × 73]>
#>  3 2021-05-29 <tibble [4,555 × 73]>
#>  4 2021-05-31 <tibble [3,877 × 73]>
#>  5 2021-06-02 <tibble [4,452 × 73]>
#>  6 2021-06-04 <tibble [4,201 × 73]>
#>  7 2021-06-06 <tibble [3,129 × 73]>
#>  8 2021-06-08 <tibble [8,043 × 73]>
#>  9 2021-06-11 <tibble [4,247 × 73]>
#> 10 2021-06-13 <tibble [3,657 × 73]>
#> # ℹ 101 more rows
…
