Logit
…
yield_df
```

```
## # A tibble: 209 × 2
##    date         spread
##    <date>        <dbl>
##  1 1971-07-01  0.00913
##  2 1971-10-01  0.0134 
##  3 1972-01-01  0.0176 
##  4 1972-04-01  0.0139 
##  5 1972-07-01  0.0115 
##  6 1972-10-01  0.00858
##  7 1973-01-01  0.00183
##  8 1973-04-01 -0.00310
##  9 1973-07-01 -0.0131 
## 10 1973-10-01 -0.00606
## # ℹ 199 more rows
```

## Setup - Join the two sets

```r
inner_join(
  x = yield_df,
  y = recession_usa_df
)
```

```
## # A tibble: 195 × 3
##    date         spread recession
##    <date>        <dbl> <lgl>    
##  1 1971-07-01  0.00913 FALSE    
##  2 1971-10-01  0.0134  FALSE    
##  3 1972-01-01  0.0176  FALSE    
##  4 1972-04-01  0.0139  FALSE    
##  5 1972-07-01  0.0115  FALSE    
##  6 1972-10-01  0.00858 FALSE    
##  7 1973-01-01  0.00183 FALSE    
##  8 1973-04-01 -0.00310 FALSE    
##  9 1973-07-01 -0.0131  FALSE    
## 10 1973-10-01 -0.00606 TRUE     
## # ℹ 185 more rows
```
…
---

### The Logit in R

Predictions & errors for the observations:

```r
broom::augment(fit, type.predict = "response")
```

```
## # A tibble: 191 × 9
##    .rownames recession   spread .fitted .resid    .hat .sigma .cooksd .std.resid
##    <chr>     <lgl>        <dbl>   <dbl>  <dbl>   <dbl>  <dbl>   <dbl>      <dbl>
##  1 5         FALSE      0.00913  0.114  -0.491 0.00848  0.784 5.53e-4     -0.493
##  2 6         FALSE      0.0134   0.0620 -0.358 0.00803  0.785 2.70e-4     -0.359
##  3 7         FALSE      0.0176   0.0331 -0.259 0.00703  0.785 1.22e-4     -0.260
##  4 8         FALSE      0.0139   0.0569 -0.342 0.00793  0.785 2.43e-4     -0.344
##  5 9         FALSE      0.0115   0.0807 -0.410 0.00827  0.785 3.69e-4     -0.412
##  6 10        TRUE       0.00858  0.122   2.05  0.00853  0.771 3.11e-2      2.06 
##  7 11        TRUE       0.00183  0.286   1.58  0.0118   0.777 1.51e-2      1.59 
##  8 12        TRUE      -0.00310  0.465   1.24  0.0218   0.780 1.32e-2      1.25 
##  9 13        TRUE      -0.0131   0.805   0.658 0.0417   0.784 5.48e-3      0.672
## 10 14        TRUE      -0.00606  0.580   1.04  0.0303   0.781 1.17e-2      1.06 
## # ℹ 181 more rows
```
…
If it exceeds a certain probability... = **Cut-off value**

```r
cut_off = 0.5

broom::augment(fit, type.predict = "response") %>% 
  mutate(
    estimation = .fitted > cut_off,
  ) %>% 
  select(recession, spread, .fitted, estimation)
```

```
## # A tibble: 191 × 4
##    recession   spread .fitted estimation
##    <lgl>        <dbl>   <dbl> <lgl>     
##  1 FALSE      0.00913  0.114  FALSE     
##  2 FALSE      0.0134   0.0620 FALSE     
##  3 FALSE      0.0176   0.0331 FALSE     
##  4 FALSE      0.0139   0.0569 FALSE     
##  5 FALSE      0.0115   0.0807 FALSE     
##  6 TRUE       0.00858  0.122  FALSE     
##  7 TRUE       0.00183  0.286  FALSE     
##  8 TRUE      -0.00310  0.465  FALSE     
##  9 TRUE      -0.0131   0.805  TRUE      
## 10 TRUE      -0.00606  0.580  TRUE      
## # ℹ 181 more rows
```
…
