Assumptions of the OLS
…
```r
multicol_dgp()
```

```
## # A tibble: 100 × 3
##          x1      x2     y
##       <dbl>   <dbl> <dbl>
##  1 -1.35    -10.3    41.7
##  2 -0.622    -2.43   84.3
##  3  0.423     4.61  125. 
##  4 -0.584    -4.90   72.3
##  5 -0.00396  -0.363  99.6
##  6 -2.01    -14.9    15.7
##  7 -0.242     1.32  107. 
##  8 -1.55    -10.0    42.7
##  9  0.474     1.63  110. 
## 10  2.62     19.2   208. 
## # ℹ 90 more rows
```
…
