Big Data & Data Visualisation - Dplyr & Tidyr basics
…
Lets return to the fertility_df data frame.

fertility_df <- read_csv("https://stats.oecd.org/sdmx-json/data/DP_LIVE/.FERTILITY.../OECD?contentType=csv&detail=code&separator=comma&csv-lang=en")

fertility_df

# A tibble: 3,294 × 8
   LOCATION INDICATOR SUBJECT MEASURE   FREQUENCY  TIME Value `Flag Codes`
   <chr>    <chr>     <chr>   <chr>     <chr>     <dbl> <dbl> <lgl>       
 1 AUS      FERTILITY TOT     CHD_WOMAN A          1960  3.45 NA          
 2 AUS      FERTILITY TOT     CHD_WOMAN A          1961  3.55 NA          
 3 AUS      FERTILITY TOT     CHD_WOMAN A          1962  3.43 NA          
 4 AUS      FERTILITY TOT     CHD_WOMAN A          1963  3.34 NA          
 5 AUS      FERTILITY TOT     CHD_WOMAN A          1964  3.15 NA          
 6 AUS      FERTILITY TOT     CHD_WOMAN A          1965  2.97 NA          
 7 AUS      FERTILITY TOT     CHD_WOMAN A          1966  2.89 NA          
 8 AUS      FERTILITY TOT     CHD_WOMAN A          1967  2.85 NA          
 9 AUS      FERTILITY TOT     CHD_WOMAN A          1968  2.89 NA          
10 AUS      FERTILITY TOT     CHD_WOMAN A          1969  2.89 NA          
# ℹ 3,284 more rows

Lets take an example with the following two functions from the {dplyr} package:

filter() subset a data frame, retaining all rows that satisfy your conditions

count() count the unique values of one or more variables

How many observations are there by years that are above 2.1?

Step 1. Filter to rows where Value >= 2.1

filter(.data = fertility_df, Value >= 2.1)

# A tibble: 1,369 × 8
   LOCATION INDICATOR SUBJECT MEASURE   FREQUENCY  TIME Value `Flag Codes`
   <chr>    <chr>     <chr>   <chr>     <chr>     <dbl> <dbl> <lgl>       
 1 AUS      FERTILITY TOT     CHD_WOMAN A          1960  3.45 NA          
 2 AUS      FERTILITY TOT     CHD_WOMAN A          1961  3.55 NA          
 3 AUS      FERTILITY TOT     CHD_WOMAN A          1962  3.43 NA          
 4 AUS      FERTILITY TOT     CHD_WOMAN A          1963  3.34 NA          
 5 AUS      FERTILITY TOT     CHD_WOMAN A          1964  3.15 NA          
 6 AUS      FERTILITY TOT     CHD_WOMAN A          1965  2.97 NA          
 7 AUS      FERTILITY TOT     CHD_WOMAN A          1966  2.89 NA          
 8 AUS      FERTILITY TOT     CHD_WOMAN A          1967  2.85 NA          
 9 AUS      FERTILITY TOT     CHD_WOMAN A          1968  2.89 NA          
10 AUS      FERTILITY TOT     CHD_WOMAN A          1969  2.89 NA          
# ℹ 1,359 more rows

Tip

Unlike python or base R, in the case of dplyr functions, you can simply refer to the names of the variables without using “” or specifying the data frame.

The following is identical with pipe. (The outcome before the %>% is the first unspecified input of the next expression)

fertility_df %>% 
  filter(Value >= 2.1)

# A tibble: 1,369 × 8
   LOCATION INDICATOR SUBJECT MEASURE   FREQUENCY  TIME Value `Flag Codes`
   <chr>    <chr>     <chr>   <chr>     <chr>     <dbl> <dbl> <lgl>       
 1 AUS      FERTILITY TOT     CHD_WOMAN A          1960  3.45 NA          
 2 AUS      FERTILITY TOT     CHD_WOMAN A          1961  3.55 NA          
 3 AUS      FERTILITY TOT     CHD_WOMAN A          1962  3.43 NA          
 4 AUS      FERTILITY TOT     CHD_WOMAN A          1963  3.34 NA          
 5 AUS      FERTILITY TOT     CHD_WOMAN A          1964  3.15 NA          
 6 AUS      FERTILITY TOT     CHD_WOMAN A          1965  2.97 NA          
 7 AUS      FERTILITY TOT     CHD_WOMAN A          1966  2.89 NA          
 8 AUS      FERTILITY TOT     CHD_WOMAN A          1967  2.85 NA          
 9 AUS      FERTILITY TOT     CHD_WOMAN A          1968  2.89 NA          
10 AUS      FERTILITY TOT     CHD_WOMAN A          1969  2.89 NA          
# ℹ 1,359 more rows

Without the %>% 2 possibilities exist to use the result of the filter in the count function

1 Assigning a new data frame

fertility_df2 <- filter(fertility_df, Value >= 2.1)
count(fertility_df2, TIME)

2 Unreadable nesting

count(filter(fertility_df, Value >= 2.1), TIME)

# A tibble: 62 × 2
    TIME     n
   <dbl> <int>
 1  1960    47
 2  1961    47
 3  1962    47
 4  1963    47
 5  1964    47
 6  1965    47
 7  1966    45
 8  1967    44
 9  1968    44
10  1969    42
# ℹ 52 more rows

With the %>%:

fertility_df %>% 
  filter(Value >= 2.1) %>% # "... and after the filtering ..."
  count(TIME)

# A tibble: 62 × 2
    TIME     n
   <dbl> <int>
 1  1960    47
 2  1961    47
 3  1962    47
 4  1963    47
 5  1964    47
 6  1965    47
 7  1966    45
 8  1967    44
 9  1968    44
10  1969    42
# ℹ 52 more rows
…
Dplyr functions

select() Extract the specified columns as a table.

select(.data = fertility_df, LOCATION, TIME, Value)

# A tibble: 3,294 × 3
   LOCATION  TIME Value
   <chr>    <dbl> <dbl>
 1 AUS       1960  3.45
 2 AUS       1961  3.55
 3 AUS       1962  3.43
 4 AUS       1963  3.34
 5 AUS       1964  3.15
 6 AUS       1965  2.97
 7 AUS       1966  2.89
 8 AUS       1967  2.85
 9 AUS       1968  2.89
10 AUS       1969  2.89
# ℹ 3,284 more rows

fertility_df %>% 
  select(LOCATION, TIME, Value) # using col names

# A tibble: 3,294 × 3
   LOCATION  TIME Value
   <chr>    <dbl> <dbl>
 1 AUS       1960  3.45
 2 AUS       1961  3.55
 3 AUS       1962  3.43
 4 AUS       1963  3.34
 5 AUS       1964  3.15
 6 AUS       1965  2.97
 7 AUS       1966  2.89
 8 AUS       1967  2.85
 9 AUS       1968  2.89
10 AUS       1969  2.89
# ℹ 3,284 more rows

Identical outcome

fertility_df %>% 
  select(1, 6:7) # by column numbers

# A tibble: 3,294 × 3
   LOCATION  TIME Value
   <chr>    <dbl> <dbl>
 1 AUS       1960  3.45
 2 AUS       1961  3.55
 3 AUS       1962  3.43
 4 AUS       1963  3.34
 5 AUS       1964  3.15
 6 AUS       1965  2.97
 7 AUS       1966  2.89
 8 AUS       1967  2.85
 9 AUS       1968  2.89
10 AUS       1969  2.89
# ℹ 3,284 more rows

fertility_df %>% 
  select(- (2:5), -`Flag Codes`) # drop these

# A tibble: 3,294 × 3
   LOCATION  TIME Value
   <chr>    <dbl> <dbl>
 1 AUS       1960  3.45
 2 AUS       1961  3.55
 3 AUS       1962  3.43
 4 AUS       1963  3.34
 5 AUS       1964  3.15
 6 AUS       1965  2.97
 7 AUS       1966  2.89
 8 AUS       1967  2.85
 9 AUS       1968  2.89
10 AUS       1969  2.89
# ℹ 3,284 more rows

Tip

In this case, “" had to be used when referencing the variable namedflag code. The reason for this is that in dplyr expressions, variables containing spaces or special characters always need to be enclosed in "” To overcome the difficulties arising from special characters in the headers, the clean_names function in the janitor package provides a helpful solution, allowing all variables of a table to be renamed at once.

rename() renames columns.

fertility_df %>% 
  select(LOCATION, TIME, Value) %>% 
  rename(geo = LOCATION, fertility = Value)

# A tibble: 3,294 × 3
   geo    TIME fertility
   <chr> <dbl>     <dbl>
 1 AUS    1960      3.45
 2 AUS    1961      3.55
 3 AUS    1962      3.43
 4 AUS    1963      3.34
 5 AUS    1964      3.15
 6 AUS    1965      2.97
 7 AUS    1966      2.89
 8 AUS    1967      2.85
 9 AUS    1968      2.89
10 AUS    1969      2.89
# ℹ 3,284 more rows

.content-box-green[ HINT: ]

Tip

You can do it in 1 single step.

fertility_df %>% 
  select(
    geo = LOCATION, # select and rename
    TIME,
    fertility = Value
  )

# A tibble: 3,294 × 3
   geo    TIME fertility
   <chr> <dbl>     <dbl>
 1 AUS    1960      3.45
 2 AUS    1961      3.55
 3 AUS    1962      3.43
 4 AUS    1963      3.34
 5 AUS    1964      3.15
 6 AUS    1965      2.97
 7 AUS    1966      2.89
 8 AUS    1967      2.85
 9 AUS    1968      2.89
10 AUS    1969      2.89
# ℹ 3,284 more rows
…
mutate() computes new column(s).

countrycode::countrycode() Translates from one country naming scheme to another.

library(countrycode)

fertility_df %>% 
  select(LOCATION, TIME, Value) %>% 
  mutate(
    country_name = countrycode(LOCATION, "iso3c", "country.name"),
    continent = countrycode(LOCATION, "iso3c", "continent")
  )

# A tibble: 3,294 × 5
   LOCATION  TIME Value country_name continent
   <chr>    <dbl> <dbl> <chr>        <chr>    
 1 AUS       1960  3.45 Australia    Oceania  
 2 AUS       1961  3.55 Australia    Oceania  
 3 AUS       1962  3.43 Australia    Oceania  
 4 AUS       1963  3.34 Australia    Oceania  
 5 AUS       1964  3.15 Australia    Oceania  
 6 AUS       1965  2.97 Australia    Oceania  
 7 AUS       1966  2.89 Australia    Oceania  
 8 AUS       1967  2.85 Australia    Oceania  
 9 AUS       1968  2.89 Australia    Oceania  
10 AUS       1969  2.89 Australia    Oceania  
# ℹ 3,284 more rows

library(countrycode)

fertility_df %>% 
  select(LOCATION, TIME, Value) %>% 
  mutate(
    country_name = countrycode(LOCATION, "iso3c", "country.name"),
    continent = countrycode(LOCATION, "iso3c", "continent"),
    LOCATION = countrycode(LOCATION, "iso3c", "iso2c") # modify the original column
  )

# A tibble: 3,294 × 5
   LOCATION  TIME Value country_name continent
   <chr>    <dbl> <dbl> <chr>        <chr>    
 1 AU        1960  3.45 Australia    Oceania  
 2 AU        1961  3.55 Australia    Oceania  
 3 AU        1962  3.43 Australia    Oceania  
 4 AU        1963  3.34 Australia    Oceania  
 5 AU        1964  3.15 Australia    Oceania  
 6 AU        1965  2.97 Australia    Oceania  
 7 AU        1966  2.89 Australia    Oceania  
 8 AU        1967  2.85 Australia    Oceania  
 9 AU        1968  2.89 Australia    Oceania  
10 AU        1969  2.89 Australia    Oceania  
# ℹ 3,284 more rows

Warning

If you specify a single value instead of a vector, then the values will be repeated by the number of rows.

fertility_df %>% 
  select(LOCATION, TIME, Value) %>% 
  mutate(avg_fertility = mean(Value))

# A tibble: 3,294 × 4
   LOCATION  TIME Value avg_fertility
   <chr>    <dbl> <dbl>         <dbl>
 1 AUS       1960  3.45          2.34
 2 AUS       1961  3.55          2.34
 3 AUS       1962  3.43          2.34
 4 AUS       1963  3.34          2.34
 5 AUS       1964  3.15          2.34
 6 AUS       1965  2.97          2.34
 7 AUS       1966  2.89          2.34
 8 AUS       1967  2.85          2.34
 9 AUS       1968  2.89          2.34
10 AUS       1969  2.89          2.34
# ℹ 3,284 more rows
Tips for mutate

ifelse

ifelse() returns a vector filled with elements selected from either yes or no depending on the condition.

fertility_df %>% 
  select(LOCATION, TIME, Value) %>% 
  mutate(
    avg_fertility = mean(Value),
    above_avg = Value > avg_fertility,
    high = ifelse(above_avg, "yes, above the avg", "no")
  )

# A tibble: 3,294 × 6
   LOCATION  TIME Value avg_fertility above_avg high              
   <chr>    <dbl> <dbl>         <dbl> <lgl>     <chr>             
 1 AUS       1960  3.45          2.34 TRUE      yes, above the avg
 2 AUS       1961  3.55          2.34 TRUE      yes, above the avg
 3 AUS       1962  3.43          2.34 TRUE      yes, above the avg
 4 AUS       1963  3.34          2.34 TRUE      yes, above the avg
 5 AUS       1964  3.15          2.34 TRUE      yes, above the avg
 6 AUS       1965  2.97          2.34 TRUE      yes, above the avg
 7 AUS       1966  2.89          2.34 TRUE      yes, above the avg
 8 AUS       1967  2.85          2.34 TRUE      yes, above the avg
 9 AUS       1968  2.89          2.34 TRUE      yes, above the avg
10 AUS       1969  2.89          2.34 TRUE      yes, above the avg
# ℹ 3,284 more rows

ifelse() returns a vector filled with elements selected from either yes or no depending on the condition.

fertility_df %>% 
  select(LOCATION, TIME, Value) %>% 
  mutate(
    avg_fertility = mean(Value),
    above_avg = Value > avg_fertility,
    high = ifelse(above_avg, "yes, above the avg", "no")
  )

# A tibble: 3,294 × 6
   LOCATION  TIME Value avg_fertility above_avg high              
   <chr>    <dbl> <dbl>         <dbl> <lgl>     <chr>             
 1 AUS       1960  3.45          2.34 TRUE      yes, above the avg
 2 AUS       1961  3.55          2.34 TRUE      yes, above the avg
 3 AUS       1962  3.43          2.34 TRUE      yes, above the avg
 4 AUS       1963  3.34          2.34 TRUE      yes, above the avg
 5 AUS       1964  3.15          2.34 TRUE      yes, above the avg
 6 AUS       1965  2.97          2.34 TRUE      yes, above the avg
 7 AUS       1966  2.89          2.34 TRUE      yes, above the avg
 8 AUS       1967  2.85          2.34 TRUE      yes, above the avg
 9 AUS       1968  2.89          2.34 TRUE      yes, above the avg
10 AUS       1969  2.89          2.34 TRUE      yes, above the avg
# ℹ 3,284 more rows

With a single step:

fertility_df %>% 
  select(LOCATION, TIME, Value) %>% 
  mutate(
    high = ifelse(Value > mean(Value), "yes, above the avg", "no")
  )

# A tibble: 3,294 × 4
   LOCATION  TIME Value high              
   <chr>    <dbl> <dbl> <chr>             
 1 AUS       1960  3.45 yes, above the avg
 2 AUS       1961  3.55 yes, above the avg
 3 AUS       1962  3.43 yes, above the avg
 4 AUS       1963  3.34 yes, above the avg
 5 AUS       1964  3.15 yes, above the avg
 6 AUS       1965  2.97 yes, above the avg
 7 AUS       1966  2.89 yes, above the avg
 8 AUS       1967  2.85 yes, above the avg
 9 AUS       1968  2.89 yes, above the avg
10 AUS       1969  2.89 yes, above the avg
# ℹ 3,284 more rows
…
case_when() Vectorise multiple if_else() statements (return the first value associated with TRUE condition)

fertility_df %>% 
  select(LOCATION, TIME, Value) %>% 
  mutate(
     fertility_level = case_when(
      Value >= 5 ~ "very high",
      Value >= 3 ~ "high", 
      Value >= 2.1 ~ "above replacement r",
      Value >= 1.3 ~ "below replacemnt r",
      TRUE ~ "very low"
    )
  )

# A tibble: 3,294 × 4
   LOCATION  TIME Value fertility_level    
   <chr>    <dbl> <dbl> <chr>              
 1 AUS       1960  3.45 high               
 2 AUS       1961  3.55 high               
 3 AUS       1962  3.43 high               
 4 AUS       1963  3.34 high               
 5 AUS       1964  3.15 high               
 6 AUS       1965  2.97 above replacement r
 7 AUS       1966  2.89 above replacement r
 8 AUS       1967  2.85 above replacement r
 9 AUS       1968  2.89 above replacement r
10 AUS       1969  2.89 above replacement r
# ℹ 3,284 more rows
From the latest release:

fertility_df %>% 
  select(LOCATION, TIME, Value) %>% 
  mutate(
     fertility_level = case_when(
      Value >= 5 ~ "very high",
      Value >= 3 ~ "high", 
      Value >= 2.1 ~ "above replacement r",
      Value >= 1.3 ~ "below replacemnt r",
      .default =  "very low"
    )
  )

# A tibble: 3,294 × 4
   LOCATION  TIME Value fertility_level    
   <chr>    <dbl> <dbl> <chr>              
 1 AUS       1960  3.45 high               
 2 AUS       1961  3.55 high               
 3 AUS       1962  3.43 high               
 4 AUS       1963  3.34 high               
 5 AUS       1964  3.15 high               
 6 AUS       1965  2.97 above replacement r
 7 AUS       1966  2.89 above replacement r
 8 AUS       1967  2.85 above replacement r
 9 AUS       1968  2.89 above replacement r
10 AUS       1969  2.89 above replacement r
# ℹ 3,284 more rows
…
filter() Extract rows that meet logical criteria.

fertility_df %>% 
  filter(LOCATION != "EU" & LOCATION != "OAVG")

# A tibble: 3,170 × 8
   LOCATION INDICATOR SUBJECT MEASURE   FREQUENCY  TIME Value `Flag Codes`
   <chr>    <chr>     <chr>   <chr>     <chr>     <dbl> <dbl> <lgl>       
 1 AUS      FERTILITY TOT     CHD_WOMAN A          1960  3.45 NA          
 2 AUS      FERTILITY TOT     CHD_WOMAN A          1961  3.55 NA          
 3 AUS      FERTILITY TOT     CHD_WOMAN A          1962  3.43 NA          
 4 AUS      FERTILITY TOT     CHD_WOMAN A          1963  3.34 NA          
 5 AUS      FERTILITY TOT     CHD_WOMAN A          1964  3.15 NA          
 6 AUS      FERTILITY TOT     CHD_WOMAN A          1965  2.97 NA          
 7 AUS      FERTILITY TOT     CHD_WOMAN A          1966  2.89 NA          
 8 AUS      FERTILITY TOT     CHD_WOMAN A          1967  2.85 NA          
 9 AUS      FERTILITY TOT     CHD_WOMAN A          1968  2.89 NA          
10 AUS      FERTILITY TOT     CHD_WOMAN A          1969  2.89 NA          
# ℹ 3,160 more rows
…
Tip

In order to ensure that R consistently generates the same “random” sample, you can utilize the set.seed function. This function has the ability to influence all sources of randomness within your ongoing session. Use it for your research project, if reproducibility is important.

arrange() Order rows by values of a column or columns (low to high), use with desc() to order from high to low.

fertility_df %>% 
  select(LOCATION, TIME, 
         Value) %>% 
  arrange(Value)

# A tibble: 3,294 × 3
   LOCATION  TIME Value
   <chr>    <dbl> <dbl>
 1 KOR       2021  0.81
 2 KOR       2020  0.84
 3 KOR       2019  0.92
 4 KOR       2018  0.98
 5 KOR       2017  1.05
 6 KOR       2005  1.09
 7 BGR       1997  1.09
 8 LVA       1998  1.1 
 9 LVA       1997  1.11
10 BGR       1998  1.11
# ℹ 3,284 more rows

fertility_df %>% 
  select(LOCATION, TIME, 
         Value) %>% 
  arrange(desc(Value))

# A tibble: 3,294 × 3
   LOCATION  TIME Value
   <chr>    <dbl> <dbl>
 1 SAU       1964  7.67
 2 SAU       1965  7.66
 3 SAU       1966  7.66
 4 SAU       1967  7.66
 5 SAU       1963  7.65
 6 SAU       1962  7.64
 7 SAU       1960  7.63
 8 SAU       1961  7.63
 9 SAU       1968  7.63
10 SAU       1969  7.6 
# ℹ 3,284 more rows

Grouping

group_by() Create a “grouped” copy of a table.

summarise() Compute table of summaries.

fertility_df %>% 
  group_by(LOCATION)

# A tibble: 3,294 × 8
# Groups:   LOCATION [54]
   LOCATION INDICATOR SUBJECT MEASURE   FREQUENCY  TIME Value `Flag Codes`
   <chr>    <chr>     <chr>   <chr>     <chr>     <dbl> <dbl> <lgl>       
 1 AUS      FERTILITY TOT     CHD_WOMAN A          1960  3.45 NA          
 2 AUS      FERTILITY TOT     CHD_WOMAN A          1961  3.55 NA          
 3 AUS      FERTILITY TOT     CHD_WOMAN A          1962  3.43 NA          
 4 AUS      FERTILITY TOT     CHD_WOMAN A          1963  3.34 NA          
 5 AUS      FERTILITY TOT     CHD_WOMAN A          1964  3.15 NA          
 6 AUS      FERTILITY TOT     CHD_WOMAN A          1965  2.97 NA          
 7 AUS      FERTILITY TOT     CHD_WOMAN A          1966  2.89 NA          
 8 AUS      FERTILITY TOT     CHD_WOMAN A          1967  2.85 NA          
 9 AUS      FERTILITY TOT     CHD_WOMAN A          1968  2.89 NA          
10 AUS      FERTILITY TOT     CHD_WOMAN A          1969  2.89 NA          
# ℹ 3,284 more rows

fertility_df %>% 
  group_by(LOCATION) %>% 
  summarise(avg_fertility = mean(Value))

# A tibble: 54 × 2
   LOCATION avg_fertility
   <chr>            <dbl>
 1 ARG               2.79
 2 AUS               2.13
 3 AUT               1.72
 4 BEL               1.84
 5 BGR               1.76
 6 BRA               3.29
 7 CAN               1.91
 8 CHE               1.70
 9 CHL               2.68
10 CHN               2.91
# ℹ 44 more rows

Example: number of observations

fertility_df %>% 
  group_by(LOCATION) %>% 
  summarise(n_obs = n())

# A tibble: 54 × 2
   LOCATION n_obs
   <chr>    <int>
 1 ARG         62
 2 AUS         62
 3 AUT         62
 4 BEL         62
 5 BGR         62
 6 BRA         62
 7 CAN         62
 8 CHE         62
 9 CHL         62
10 CHN         62
# ℹ 44 more rows
…
