Big Data & Data Visualisation - A whole game
…
Lets download the infant mortality rates from Eurostat (in Excel format) and link it with the fertility_df

infant_mortality_df <- readxl::read_excel("../data/demo_minfind.xls")

The issue here is that there are multiple tables on the first sheet (not a rare thing).

infant_mortality_df

# A tibble: 339 × 62
   Infant mortality rate…¹ ...2  ...3  ...4  ...5  ...6  ...7  ...8  ...9  ...10
   <chr>                   <chr> <chr> <chr> <chr> <chr> <chr> <chr> <chr> <chr>
 1 <NA>                    <NA>  <NA>  <NA>  <NA>  <NA>  <NA>  <NA>  <NA>  <NA> 
 2 Last update             4474… <NA>  <NA>  <NA>  <NA>  <NA>  <NA>  <NA>  <NA> 
 3 Extracted on            4482… <NA>  <NA>  <NA>  <NA>  <NA>  <NA>  <NA>  <NA> 
 4 Source of data          Euro… <NA>  <NA>  <NA>  <NA>  <NA>  <NA>  <NA>  <NA> 
 5 <NA>                    <NA>  <NA>  <NA>  <NA>  <NA>  <NA>  <NA>  <NA>  <NA> 
 6 INDIC_DE                Earl… <NA>  <NA>  <NA>  <NA>  <NA>  <NA>  <NA>  <NA> 
 7 UNIT                    Rate  <NA>  <NA>  <NA>  <NA>  <NA>  <NA>  <NA>  <NA> 
 8 <NA>                    <NA>  <NA>  <NA>  <NA>  <NA>  <NA>  <NA>  <NA>  <NA> 
 9 GEO/TIME                1960  1961  1962  1963  1964  1965  1966  1967  1968 
10 European Union - 27 co… :     :     :     :     :     :     :     :     :    
# ℹ 329 more rows
# ℹ abbreviated name: ¹​`Infant mortality rates [demo_minfind]`
# ℹ 52 more variables: ...11 <chr>, ...12 <chr>, ...13 <chr>, ...14 <chr>,
#   ...15 <chr>, ...16 <chr>, ...17 <chr>, ...18 <chr>, ...19 <chr>,
#   ...20 <chr>, ...21 <chr>, ...22 <chr>, ...23 <chr>, ...24 <chr>,
#   ...25 <chr>, ...26 <chr>, ...27 <chr>, ...28 <chr>, ...29 <chr>,
#   ...30 <chr>, ...31 <chr>, ...32 <chr>, ...33 <chr>, ...34 <chr>, …
…
And ends at the next empty cell (not “:”)

end_index <- pull(infant_mortality_df, 2) %>% 
  is.na() %>%
  which() %>% 
  detect(~ . > start_index)

infant_mortality_df %>% 
  slice(start_index:end_index)

# A tibble: 61 × 62
   Infant mortality rate…¹ ...2  ...3  ...4  ...5  ...6  ...7  ...8  ...9  ...10
   <chr>                   <chr> <chr> <chr> <chr> <chr> <chr> <chr> <chr> <chr>
 1 GEO/TIME                1960  1961  1962  1963  1964  1965  1966  1967  1968 
 2 European Union - 27 co… :     38.2… 36.3… 34.2… 31.8… 30    29.1… 28.6… 29.1…
 3 European Union - 28 co… :     36.2… 34.6… 32.7… 30.5  28.6… 28    27.5  27.8…
 4 European Union - 27 co… :     36    34.3… 32.5  30.3… 28.5  27.8… 27.3… 27.8…
 5 Euro area - 19 countri… :     34.7… 33.2… 31.8… 29.6… 28.3… 27.6… 26.1… 25.6…
 6 Euro area - 18 countri… :     34.7… 33.2… 31.8… 29.6… 28.3… 27.6… 26.1… 25.6…
 7 Belgium                 31.3… 28.1… 27.5  27.1… 25.3… 23.6… 24.6… 22.8… 21.6…
 8 Bulgaria                45.1… 37.7… 37.2… 35.7… 32.8… 30.8… 32.2… 33.1… 28.3…
 9 Czechia                 20    19.3… 21.1… 19.6… 19.1… 23.6… 21.8… 21.5  21.6…
10 Denmark                 21.5  21.8… 20.1… 19.1… 18.6… 18.6… 16.8… 15.8… 16.3…
# ℹ 51 more rows
# ℹ abbreviated name: ¹​`Infant mortality rates [demo_minfind]`
# ℹ 52 more variables: ...11 <chr>, ...12 <chr>, ...13 <chr>, ...14 <chr>,
#   ...15 <chr>, ...16 <chr>, ...17 <chr>, ...18 <chr>, ...19 <chr>,
#   ...20 <chr>, ...21 <chr>, ...22 <chr>, ...23 <chr>, ...24 <chr>,
#   ...25 <chr>, ...26 <chr>, ...27 <chr>, ...28 <chr>, ...29 <chr>,
#   ...30 <chr>, ...31 <chr>, ...32 <chr>, ...33 <chr>, ...34 <chr>, …

Tip

If the colnames are not tidy or they are threated as observation, then use the janitor package.

infant_mortality_df %>% 
  slice(start_index:end_index) %>% 
  janitor::row_to_names(1)

# A tibble: 60 × 62
   `GEO/TIME`     `1960` `1961` `1962` `1963` `1964` `1965` `1966` `1967` `1968`
   <chr>          <chr>  <chr>  <chr>  <chr>  <chr>  <chr>  <chr>  <chr>  <chr> 
 1 European Unio… :      38.20… 36.39… 34.29… 31.89… 30     29.19… 28.69… 29.19…
 2 European Unio… :      36.20… 34.60… 32.70… 30.5   28.69… 28     27.5   27.89…
 3 European Unio… :      36     34.39… 32.5   30.30… 28.5   27.80… 27.39… 27.80…
 4 Euro area - 1… :      34.79… 33.29… 31.80… 29.60… 28.30… 27.60… 26.19… 25.69…
 5 Euro area - 1… :      34.79… 33.20… 31.80… 29.60… 28.30… 27.60… 26.19… 25.69…
 6 Belgium        31.39… 28.10… 27.5   27.19… 25.30… 23.69… 24.69… 22.89… 21.69…
 7 Bulgaria       45.10… 37.79… 37.29… 35.70… 32.89… 30.80… 32.20… 33.10… 28.30…
 8 Czechia        20     19.30… 21.10… 19.69… 19.10… 23.69… 21.89… 21.5   21.60…
 9 Denmark        21.5   21.80… 20.10… 19.10… 18.69… 18.69… 16.89… 15.80… 16.39…
10 Germany (unti… 33.79… 31.69… 29.30… 27     25.30… 23.89… 23.60… 22.89… 22.80…
# ℹ 50 more rows
# ℹ 52 more variables: `1969` <chr>, `1970` <chr>, `1971` <chr>, `1972` <chr>,
#   `1973` <chr>, `1974` <chr>, `1975` <chr>, `1976` <chr>, `1977` <chr>,
#   `1978` <chr>, `1979` <chr>, `1980` <chr>, `1981` <chr>, `1982` <chr>,
#   `1983` <chr>, `1984` <chr>, `1985` <chr>, `1986` <chr>, `1987` <chr>,
#   `1988` <chr>, `1989` <chr>, `1990` <chr>, `1991` <chr>, `1992` <chr>,
#   `1993` <chr>, `1994` <chr>, `1995` <chr>, `1996` <chr>, `1997` <chr>, …

Next issue: All columns are in character format

infant_mortality_df %>% 
  slice(start_index:end_index) %>% 
  janitor::row_to_names(1) %>% 
* mutate_at(- 1, as.numeric) # all except the 1st col

# A tibble: 60 × 62
   `GEO/TIME`     `1960` `1961` `1962` `1963` `1964` `1965` `1966` `1967` `1968`
   <chr>           <dbl>  <dbl>  <dbl>  <dbl>  <dbl>  <dbl>  <dbl>  <dbl>  <dbl>
 1 European Unio…   NA     38.2   36.4   34.3   31.9   30     29.2   28.7   29.2
 2 European Unio…   NA     36.2   34.6   32.7   30.5   28.7   28     27.5   27.9
 3 European Unio…   NA     36     34.4   32.5   30.3   28.5   27.8   27.4   27.8
 4 Euro area - 1…   NA     34.8   33.3   31.8   29.6   28.3   27.6   26.2   25.7
 5 Euro area - 1…   NA     34.8   33.2   31.8   29.6   28.3   27.6   26.2   25.7
 6 Belgium          31.4   28.1   27.5   27.2   25.3   23.7   24.7   22.9   21.7
 7 Bulgaria         45.1   37.8   37.3   35.7   32.9   30.8   32.2   33.1   28.3
 8 Czechia          20     19.3   21.1   19.7   19.1   23.7   21.9   21.5   21.6
 9 Denmark          21.5   21.8   20.1   19.1   18.7   18.7   16.9   15.8   16.4
10 Germany (unti…   33.8   31.7   29.3   27     25.3   23.9   23.6   22.9   22.8
# ℹ 50 more rows
# ℹ 52 more variables: `1969` <dbl>, `1970` <dbl>, `1971` <dbl>, `1972` <dbl>,
#   `1973` <dbl>, `1974` <dbl>, `1975` <dbl>, `1976` <dbl>, `1977` <dbl>,
#   `1978` <dbl>, `1979` <dbl>, `1980` <dbl>, `1981` <dbl>, `1982` <dbl>,
#   `1983` <dbl>, `1984` <dbl>, `1985` <dbl>, `1986` <dbl>, `1987` <dbl>,
#   `1988` <dbl>, `1989` <dbl>, `1990` <dbl>, `1991` <dbl>, `1992` <dbl>,
#   `1993` <dbl>, `1994` <dbl>, `1995` <dbl>, `1996` <dbl>, `1997` <dbl>, …

And now lets transform it into long format.

infant_mortality_df %>% 
  slice(start_index:end_index) %>% 
  janitor::row_to_names(1) %>% 
  mutate_at(- 1, as.numeric) %>% 
* pivot_longer(- 1, names_to = "TIME", 
                 values_to = "infant_mortality")

# A tibble: 3,660 × 3
   `GEO/TIME`                                TIME  infant_mortality
   <chr>                                     <chr>            <dbl>
 1 European Union - 27 countries (from 2020) 1960              NA  
 2 European Union - 27 countries (from 2020) 1961              38.2
 3 European Union - 27 countries (from 2020) 1962              36.4
 4 European Union - 27 countries (from 2020) 1963              34.3
 5 European Union - 27 countries (from 2020) 1964              31.9
 6 European Union - 27 countries (from 2020) 1965              30  
 7 European Union - 27 countries (from 2020) 1966              29.2
 8 European Union - 27 countries (from 2020) 1967              28.7
 9 European Union - 27 countries (from 2020) 1968              29.2
10 European Union - 27 countries (from 2020) 1969              28  
# ℹ 3,650 more rows
…
infant_mortality_df %>% 
  slice(start_index:end_index) %>% 
  janitor::row_to_names(1) %>% 
  mutate_at(- 1, as.numeric) %>% 
  pivot_longer(- 1, names_to = "TIME", 
               values_to = "infant_mortality") %>% 
  rename(geo = `GEO/TIME`) %>% 
  mutate(
    geo = countrycode(geo, "country.name", "iso3c"),
  ) %>% 
  filter(!is.na(geo)) %>% 
  count(geo, sort = TRUE)

# A tibble: 47 × 2
   geo       n
   <chr> <int>
 1 DEU     122
 2 FRA     122
 3 ALB      61
 4 AND      61
 5 ARM      61
 6 AUT      61
 7 AZE      61
 8 BEL      61
 9 BGR      61
10 BIH      61
# ℹ 37 more rows
…
  mutate_at(- 1, as.numeric) %>% 
  pivot_longer(- 1, names_to = "TIME", 
               values_to = "infant_mortality") %>% 
  rename(geo = `GEO/TIME`) %>% 
  filter(
    geo != "France (metropolitan)" &
      geo != "Germany (until 1990 former territory of the FRG)"
  ) %>% 
mutate(
  geo = countrycode(geo, "country.name", "iso3c"),
  TIME = as.numeric(TIME)
) %>% 
  filter(!is.na(geo)) 

# A tibble: 2,867 × 3
   geo    TIME infant_mortality
   <chr> <dbl>            <dbl>
 1 BEL    1960             31.4
 2 BEL    1961             28.1
 3 BEL    1962             27.5
 4 BEL    1963             27.2
 5 BEL    1964             25.3
 6 BEL    1965             23.7
 7 BEL    1966             24.7
 8 BEL    1967             22.9
 9 BEL    1968             21.7
10 BEL    1969             21.2
# ℹ 2,857 more rows
…
fertility_df <- read_csv("https://stats.oecd.org/sdmx-json/data/DP_LIVE/.FERTILITY.../OECD?contentType=csv&detail=code&separator=comma&csv-lang=en")

fertility_df <- fertility_df %>% 
  select(
    geo = LOCATION, TIME, fertility = Value
  )

Now we need to link the two tables.

df <- full_join(x = fertility_df, y = infant_mortality_df)

df

# A tibble: 4,205 × 4
   geo    TIME fertility infant_mortality
   <chr> <dbl>     <dbl>            <dbl>
 1 AUS    1960      3.45               NA
 2 AUS    1961      3.55               NA
 3 AUS    1962      3.43               NA
 4 AUS    1963      3.34               NA
 5 AUS    1964      3.15               NA
 6 AUS    1965      2.97               NA
 7 AUS    1966      2.89               NA
 8 AUS    1967      2.85               NA
 9 AUS    1968      2.89               NA
10 AUS    1969      2.89               NA
# ℹ 4,195 more rows
…
