Big Data & Data Visualisation - Functional programming
…
library(tidyverse)

── Attaching packages ─────────────────────────────────────── tidyverse 1.3.2 ──
✔ ggplot2 3.4.3     ✔ purrr   1.0.2
✔ tibble  3.2.1     ✔ dplyr   1.1.2
✔ tidyr   1.3.0     ✔ stringr 1.5.0
✔ readr   2.1.4     ✔ forcats 1.0.0
── Conflicts ────────────────────────────────────────── tidyverse_conflicts() ──
✖ dplyr::filter() masks stats::filter()
✖ dplyr::lag()    masks stats::lag()

lapply(file_names, read_csv)

[[1]]
# A tibble: 998 × 26
   Cites Authors         Title  Year Source Publisher ArticleURL CitesURL GSRank
   <dbl> <chr>           <chr> <dbl> <chr>  <chr>     <chr>      <chr>     <dbl>
 1  3295 GP Compo, JS W… The …  2011 Quart… Wiley On… https://r… https:/…    875
 2   885 E Nakamura, J … High…  2018 The Q… academic… https://a… https:/…    364
 3  2708 E Castronova    Synt…  2008 Synth… degruyte… https://w… https:/…    498
 4   660 RC Cornes, G v… An e…  2018 Journ… Wiley On… https://a… https:/…    261
 5   164 MC Medeiros, G… Fore…  2021 Journ… Taylor &… https://w… https:/…    122
 6  5219 GW Schwert      Why …  1989 The j… Wiley On… https://o… https:/…    560
 7  1701 PR Hansen, A L… The …  2011 Econo… Wiley On… https://o… https:/…    565
 8  2573 LJ Christiano,… The …  2003 inter… Wiley On… https://o… https:/…    586
 9  4813 F Black         Noise  1986 The j… Wiley On… https://o… https:/…    333
10   220 C Binder        Coro…  2020 Revie… direct.m… https://d… https:/…    504
# ℹ 988 more rows
# ℹ 17 more variables: QueryDate <dttm>, Type <chr>, DOI <chr>, ISSN <lgl>,
#   CitationURL <lgl>, Volume <lgl>, Issue <lgl>, StartPage <lgl>,
#   EndPage <lgl>, ECC <dbl>, CitesPerYear <dbl>, CitesPerAuthor <dbl>,
#   AuthorCount <dbl>, Age <dbl>, Abstract <chr>, FullTextURL <chr>,
#   RelatedURL <chr>

[[2]]
# A tibble: 980 × 26
   Cites Authors         Title  Year Source Publisher ArticleURL CitesURL GSRank
   <dbl> <chr>           <chr> <dbl> <chr>  <chr>     <chr>      <chr>     <dbl>
 1 30964 RF Engle        Auto…  1982 Econo… JSTOR     https://w… https:/…    872
 2  2592 GW Evans, S Ho… Lear…  2012 Learn… degruyte… https://w… https:/…    683
 3   250 O Coibion, Y G… Mone…  2022 Journ… journals… https://w… https:/…     22
 4   164 MC Medeiros, G… Fore…  2021 Journ… Taylor &… https://w… https:/…    847
 5   324 P Bordalo, N G… Over…  2020 Ameri… aeaweb.o… https://w… https:/…    518
 6   958 U Malmendier, … Lear…  2016 The Q… academic… https://a… https:/…    114
 7   951 O Coibion, Y G… Info…  2015 Ameri… aeaweb.o… https://w… https:/…    444
 8   247 O Coibion, Y G… Infl…  2020 Journ… Elsevier  https://w… https:/…     28
 9  2823 LEO Svensson    Infl…  1997 Europ… Elsevier  https://w… https:/…     38
10   110 AM Dietrich, K… News…  2022 Journ… Elsevier  https://w… https:/…    667
# ℹ 970 more rows
# ℹ 17 more variables: QueryDate <dttm>, Type <chr>, DOI <chr>, ISSN <lgl>,
#   CitationURL <lgl>, Volume <lgl>, Issue <lgl>, StartPage <lgl>,
#   EndPage <lgl>, ECC <dbl>, CitesPerYear <dbl>, CitesPerAuthor <dbl>,
#   AuthorCount <dbl>, Age <dbl>, Abstract <chr>, FullTextURL <chr>,
#   RelatedURL <chr>

The outcome is a list with 2 elements.

The `purrr` package provides a similar solution, but its going to have its advantages.

map(file_names, read_csv)

[[1]]
# A tibble: 998 × 26
   Cites Authors         Title  Year Source Publisher ArticleURL CitesURL GSRank
   <dbl> <chr>           <chr> <dbl> <chr>  <chr>     <chr>      <chr>     <dbl>
 1  3295 GP Compo, JS W… The …  2011 Quart… Wiley On… https://r… https:/…    875
 2   885 E Nakamura, J … High…  2018 The Q… academic… https://a… https:/…    364
 3  2708 E Castronova    Synt…  2008 Synth… degruyte… https://w… https:/…    498
 4   660 RC Cornes, G v… An e…  2018 Journ… Wiley On… https://a… https:/…    261
 5   164 MC Medeiros, G… Fore…  2021 Journ… Taylor &… https://w… https:/…    122
 6  5219 GW Schwert      Why …  1989 The j… Wiley On… https://o… https:/…    560
 7  1701 PR Hansen, A L… The …  2011 Econo… Wiley On… https://o… https:/…    565
 8  2573 LJ Christiano,… The …  2003 inter… Wiley On… https://o… https:/…    586
 9  4813 F Black         Noise  1986 The j… Wiley On… https://o… https:/…    333
10   220 C Binder        Coro…  2020 Revie… direct.m… https://d… https:/…    504
# ℹ 988 more rows
# ℹ 17 more variables: QueryDate <dttm>, Type <chr>, DOI <chr>, ISSN <lgl>,
#   CitationURL <lgl>, Volume <lgl>, Issue <lgl>, StartPage <lgl>,
#   EndPage <lgl>, ECC <dbl>, CitesPerYear <dbl>, CitesPerAuthor <dbl>,
#   AuthorCount <dbl>, Age <dbl>, Abstract <chr>, FullTextURL <chr>,
#   RelatedURL <chr>

[[2]]
# A tibble: 980 × 26
   Cites Authors         Title  Year Source Publisher ArticleURL CitesURL GSRank
   <dbl> <chr>           <chr> <dbl> <chr>  <chr>     <chr>      <chr>     <dbl>
 1 30964 RF Engle        Auto…  1982 Econo… JSTOR     https://w… https:/…    872
 2  2592 GW Evans, S Ho… Lear…  2012 Learn… degruyte… https://w… https:/…    683
 3   250 O Coibion, Y G… Mone…  2022 Journ… journals… https://w… https:/…     22
 4   164 MC Medeiros, G… Fore…  2021 Journ… Taylor &… https://w… https:/…    847
 5   324 P Bordalo, N G… Over…  2020 Ameri… aeaweb.o… https://w… https:/…    518
 6   958 U Malmendier, … Lear…  2016 The Q… academic… https://a… https:/…    114
 7   951 O Coibion, Y G… Info…  2015 Ameri… aeaweb.o… https://w… https:/…    444
 8   247 O Coibion, Y G… Infl…  2020 Journ… Elsevier  https://w… https:/…     28
 9  2823 LEO Svensson    Infl…  1997 Europ… Elsevier  https://w… https:/…     38
10   110 AM Dietrich, K… News…  2022 Journ… Elsevier  https://w… https:/…    667
# ℹ 970 more rows
# ℹ 17 more variables: QueryDate <dttm>, Type <chr>, DOI <chr>, ISSN <lgl>,
#   CitationURL <lgl>, Volume <lgl>, Issue <lgl>, StartPage <lgl>,
#   EndPage <lgl>, ECC <dbl>, CitesPerYear <dbl>, CitesPerAuthor <dbl>,
#   AuthorCount <dbl>, Age <dbl>, Abstract <chr>, FullTextURL <chr>,
#   RelatedURL <chr>

The result is currently identical 🤷‍♂️. The difference will lie in the fact that while the simplification of lapply is sapply, which only works for vector outputs, the functions belonging to the map function family allow you to explicitly specify the desired output. In this particular case, our output consists of two tables with identical column names. It would be desirable to obtain a single binded table 👊🏻

map_dfr(file_names, read_csv)

# A tibble: 1,978 × 26
   Cites Authors         Title  Year Source Publisher ArticleURL CitesURL GSRank
   <dbl> <chr>           <chr> <dbl> <chr>  <chr>     <chr>      <chr>     <dbl>
 1  3295 GP Compo, JS W… The …  2011 Quart… Wiley On… https://r… https:/…    875
 2   885 E Nakamura, J … High…  2018 The Q… academic… https://a… https:/…    364
 3  2708 E Castronova    Synt…  2008 Synth… degruyte… https://w… https:/…    498
 4   660 RC Cornes, G v… An e…  2018 Journ… Wiley On… https://a… https:/…    261
 5   164 MC Medeiros, G… Fore…  2021 Journ… Taylor &… https://w… https:/…    122
 6  5219 GW Schwert      Why …  1989 The j… Wiley On… https://o… https:/…    560
 7  1701 PR Hansen, A L… The …  2011 Econo… Wiley On… https://o… https:/…    565
 8  2573 LJ Christiano,… The …  2003 inter… Wiley On… https://o… https:/…    586
 9  4813 F Black         Noise  1986 The j… Wiley On… https://o… https:/…    333
10   220 C Binder        Coro…  2020 Revie… direct.m… https://d… https:/…    504
# ℹ 1,968 more rows
# ℹ 17 more variables: QueryDate <dttm>, Type <chr>, DOI <chr>, ISSN <lgl>,
#   CitationURL <lgl>, Volume <lgl>, Issue <lgl>, StartPage <lgl>,
#   EndPage <lgl>, ECC <dbl>, CitesPerYear <dbl>, CitesPerAuthor <dbl>,
#   AuthorCount <dbl>, Age <dbl>, Abstract <chr>, FullTextURL <chr>,
#   RelatedURL <chr>

One emerging issue is that we are unable to determine which observation originates from which file. The map_ provides a solution to this as we have an `.id` argument where we can specify the name to be given to the column that stores the id (1, 2, …) of the file. If the input would be a named list or vector, then it will be placed there.

map_dfr(file_names, read_csv, .id = "keyword")

# A tibble: 1,978 × 27
   keyword Cites Authors Title  Year Source Publisher ArticleURL CitesURL GSRank
   <chr>   <dbl> <chr>   <chr> <dbl> <chr>  <chr>     <chr>      <chr>     <dbl>
 1 1        3295 GP Com… The …  2011 Quart… Wiley On… https://r… https:/…    875
 2 1         885 E Naka… High…  2018 The Q… academic… https://a… https:/…    364
 3 1        2708 E Cast… Synt…  2008 Synth… degruyte… https://w… https:/…    498
 4 1         660 RC Cor… An e…  2018 Journ… Wiley On… https://a… https:/…    261
 5 1         164 MC Med… Fore…  2021 Journ… Taylor &… https://w… https:/…    122
 6 1        5219 GW Sch… Why …  1989 The j… Wiley On… https://o… https:/…    560
 7 1        1701 PR Han… The …  2011 Econo… Wiley On… https://o… https:/…    565
 8 1        2573 LJ Chr… The …  2003 inter… Wiley On… https://o… https:/…    586
 9 1        4813 F Black Noise  1986 The j… Wiley On… https://o… https:/…    333
10 1         220 C Bind… Coro…  2020 Revie… direct.m… https://d… https:/…    504
# ℹ 1,968 more rows
# ℹ 17 more variables: QueryDate <dttm>, Type <chr>, DOI <chr>, ISSN <lgl>,
#   CitationURL <lgl>, Volume <lgl>, Issue <lgl>, StartPage <lgl>,
#   EndPage <lgl>, ECC <dbl>, CitesPerYear <dbl>, CitesPerAuthor <dbl>,
#   AuthorCount <dbl>, Age <dbl>, Abstract <chr>, FullTextURL <chr>,
#   RelatedURL <chr>

Since the outcome is a tibble we can simple modify this column to replace it with the corresponding file name 📁.

map_dfr(file_names, read_csv, .id = "keyword") %>% 
  mutate(
    keyword = file_names[as.numeric(keyword)],
    keyword = str_remove(keyword, ".*/"), # remove the path
    keyword = str_remove(keyword, ".csv") # remove extension
  )

# A tibble: 1,978 × 27
   keyword Cites Authors Title  Year Source Publisher ArticleURL CitesURL GSRank
   <chr>   <dbl> <chr>   <chr> <dbl> <chr>  <chr>     <chr>      <chr>     <dbl>
 1 daily-…  3295 GP Com… The …  2011 Quart… Wiley On… https://r… https:/…    875
 2 daily-…   885 E Naka… High…  2018 The Q… academic… https://a… https:/…    364
 3 daily-…  2708 E Cast… Synt…  2008 Synth… degruyte… https://w… https:/…    498
 4 daily-…   660 RC Cor… An e…  2018 Journ… Wiley On… https://a… https:/…    261
 5 daily-…   164 MC Med… Fore…  2021 Journ… Taylor &… https://w… https:/…    122
 6 daily-…  5219 GW Sch… Why …  1989 The j… Wiley On… https://o… https:/…    560
 7 daily-…  1701 PR Han… The …  2011 Econo… Wiley On… https://o… https:/…    565
 8 daily-…  2573 LJ Chr… The …  2003 inter… Wiley On… https://o… https:/…    586
 9 daily-…  4813 F Black Noise  1986 The j… Wiley On… https://o… https:/…    333
10 daily-…   220 C Bind… Coro…  2020 Revie… direct.m… https://d… https:/…    504
# ℹ 1,968 more rows
# ℹ 17 more variables: QueryDate <dttm>, Type <chr>, DOI <chr>, ISSN <lgl>,
#   CitationURL <lgl>, Volume <lgl>, Issue <lgl>, StartPage <lgl>,
#   EndPage <lgl>, ECC <dbl>, CitesPerYear <dbl>, CitesPerAuthor <dbl>,
#   AuthorCount <dbl>, Age <dbl>, Abstract <chr>, FullTextURL <chr>,
#   RelatedURL <chr>
…
Yes, these are tibbles within a tibble (madness like “dream within a dream”) 🥴. The advantage of utilizing the functions provided by tibble and map lies in the fact that, contrary to base R data.frames, tibble-type data.frames can contain a list as a column, enabling the inclusion of any data type within the table. For instance, the file name can be one column (the keywords), all observations can be in the second column, and let’s say the average citation in the third.

tibble(file_names) %>% 
  mutate(
    data = map(file_names, read_csv),
    file_names = str_remove(file_names, ".*/"), # remove the path
    file_names = str_remove(file_names, ".csv") 
  ) %>% 
  pull(data) %>% # data column as a vector (list)
  pluck(1) # the first element

# A tibble: 998 × 26
   Cites Authors         Title  Year Source Publisher ArticleURL CitesURL GSRank
   <dbl> <chr>           <chr> <dbl> <chr>  <chr>     <chr>      <chr>     <dbl>
 1  3295 GP Compo, JS W… The …  2011 Quart… Wiley On… https://r… https:/…    875
 2   885 E Nakamura, J … High…  2018 The Q… academic… https://a… https:/…    364
 3  2708 E Castronova    Synt…  2008 Synth… degruyte… https://w… https:/…    498
 4   660 RC Cornes, G v… An e…  2018 Journ… Wiley On… https://a… https:/…    261
 5   164 MC Medeiros, G… Fore…  2021 Journ… Taylor &… https://w… https:/…    122
 6  5219 GW Schwert      Why …  1989 The j… Wiley On… https://o… https:/…    560
 7  1701 PR Hansen, A L… The …  2011 Econo… Wiley On… https://o… https:/…    565
 8  2573 LJ Christiano,… The …  2003 inter… Wiley On… https://o… https:/…    586
 9  4813 F Black         Noise  1986 The j… Wiley On… https://o… https:/…    333
10   220 C Binder        Coro…  2020 Revie… direct.m… https://d… https:/…    504
# ℹ 988 more rows
# ℹ 17 more variables: QueryDate <dttm>, Type <chr>, DOI <chr>, ISSN <lgl>,
#   CitationURL <lgl>, Volume <lgl>, Issue <lgl>, StartPage <lgl>,
#   EndPage <lgl>, ECC <dbl>, CitesPerYear <dbl>, CitesPerAuthor <dbl>,
#   AuthorCount <dbl>, Age <dbl>, Abstract <chr>, FullTextURL <chr>,
#   RelatedURL <chr>
…
Nested tibbles

The above seen functionality, that we can store a list as a column of a tibble is great, but what if we need the whole tables as one df. Well, we can simple unnest the columns.

tibble(file_names) %>% 
  mutate(
    data = map(file_names, read_csv),
    file_names = str_remove(file_names, ".*/"), # remove the path
    file_names = str_remove(file_names, ".csv"),
    avg_cite = map_dbl(data, ~ mean(.$Cites, na.rm = TRUE)) #<
  ) %>% 
  unnest(data) 

# A tibble: 1,978 × 28
   file_names     Cites Authors Title  Year Source Publisher ArticleURL CitesURL
   <chr>          <dbl> <chr>   <chr> <dbl> <chr>  <chr>     <chr>      <chr>   
 1 daily-inflati…  3295 GP Com… The …  2011 Quart… Wiley On… https://r… https:/…
 2 daily-inflati…   885 E Naka… High…  2018 The Q… academic… https://a… https:/…
 3 daily-inflati…  2708 E Cast… Synt…  2008 Synth… degruyte… https://w… https:/…
 4 daily-inflati…   660 RC Cor… An e…  2018 Journ… Wiley On… https://a… https:/…
 5 daily-inflati…   164 MC Med… Fore…  2021 Journ… Taylor &… https://w… https:/…
 6 daily-inflati…  5219 GW Sch… Why …  1989 The j… Wiley On… https://o… https:/…
 7 daily-inflati…  1701 PR Han… The …  2011 Econo… Wiley On… https://o… https:/…
 8 daily-inflati…  2573 LJ Chr… The …  2003 inter… Wiley On… https://o… https:/…
 9 daily-inflati…  4813 F Black Noise  1986 The j… Wiley On… https://o… https:/…
10 daily-inflati…   220 C Bind… Coro…  2020 Revie… direct.m… https://d… https:/…
# ℹ 1,968 more rows
# ℹ 19 more variables: GSRank <dbl>, QueryDate <dttm>, Type <chr>, DOI <chr>,
#   ISSN <lgl>, CitationURL <lgl>, Volume <lgl>, Issue <lgl>, StartPage <lgl>,
#   EndPage <lgl>, ECC <dbl>, CitesPerYear <dbl>, CitesPerAuthor <dbl>,
#   AuthorCount <dbl>, Age <dbl>, Abstract <chr>, FullTextURL <chr>,
#   RelatedURL <chr>, avg_cite <dbl>
…
params_df <- crossing(
  p = seq(from = .5, to = .6, length.out = 3),
  f = seq(from = 0, to = .7, length.out = 10)
)

params_df

# A tibble: 30 × 2
       p      f
   <dbl>  <dbl>
 1   0.5 0     
 2   0.5 0.0778
 3   0.5 0.156 
 4   0.5 0.233 
 5   0.5 0.311 
 6   0.5 0.389 
 7   0.5 0.467 
 8   0.5 0.544 
 9   0.5 0.622 
10   0.5 0.7   
# ℹ 20 more rows
…
 ■■■■■■■■■■■■■■■■■■■■■■■■■         80% |  ETA: 25s

 ■■■■■■■■■■■■■■■■■■■■■■■■■■        83% |  ETA: 20s

 ■■■■■■■■■■■■■■■■■■■■■■■■■■■       87% |  ETA: 16s

 ■■■■■■■■■■■■■■■■■■■■■■■■■■■■      90% |  ETA: 12s

 ■■■■■■■■■■■■■■■■■■■■■■■■■■■■■     93% |  ETA:  8s

 ■■■■■■■■■■■■■■■■■■■■■■■■■■■■■■    97% |  ETA:  4s

results_df

# A tibble: 30 × 4
       p      f r                  avg_r
   <dbl>  <dbl> <list>             <dbl>
 1   0.5 0      <dbl [10,000]> 10000    
 2   0.5 0.0778 <dbl [10,000]> 10483.   
 3   0.5 0.156  <dbl [10,000]>  9619.   
 4   0.5 0.233  <dbl [10,000]> 15987.   
 5   0.5 0.311  <dbl [10,000]>  2677.   
 6   0.5 0.389  <dbl [10,000]>   517.   
 7   0.5 0.467  <dbl [10,000]>  1707.   
 8   0.5 0.544  <dbl [10,000]>     0.319
 9   0.5 0.622  <dbl [10,000]>     0    
10   0.5 0.7    <dbl [10,000]>     0    
# ℹ 20 more rows
…
