Big Data & Data Visualisation - A whole game
…
news_heat_df

# A tibble: 22,129,018 × 3
   ticker time       news_heat
   <chr>  <date>     <ord>    
 1 AAPL   2010-02-16 0        
 2 AAPL   2010-02-17 2        
 3 AAPL   2010-02-18 1        
 4 AAPL   2010-02-19 0        
 5 AAPL   2010-02-22 2        
 6 AAPL   2010-02-23 3        
 7 AAPL   2010-02-24 2        
 8 AAPL   2010-02-25 4        
 9 AAPL   2010-02-26 3        
10 AAPL   2010-03-01 4        
# ℹ 22,129,008 more rows
…
sentiment_avg_df

# A tibble: 31,270,528 × 3
   ticker time       sentiment_avg
   <chr>  <date>             <dbl>
 1 AMZN   2007-01-04       -0.500 
 2 AMZN   2007-01-05       -0.500 
 3 AMZN   2007-01-08       -0.500 
 4 AMZN   2007-01-09       -0.500 
 5 AMZN   2007-01-10        0.0555
 6 AMZN   2007-01-11        0.0555
 7 AMZN   2007-01-12        0.0555
 8 AMZN   2007-01-15        0.0555
 9 AMZN   2007-01-16        0.0555
10 AMZN   2007-01-17        0.0555
# ℹ 31,270,518 more rows

bloomberg_df <- list(
  news_heat_df, 
  sentiment_avg_df
) |> 
  reduce(full_join, by = join_by(ticker, time)) |> 
  arrange(ticker, time)

bloomberg_df

# A tibble: 34,499,579 × 4
   ticker time       news_heat sentiment_avg
   <chr>  <date>     <ord>             <dbl>
 1 A      2007-01-05 <NA>             0.0506
 2 A      2007-01-08 <NA>             0.0506
 3 A      2007-01-09 <NA>             0.0506
 4 A      2007-01-10 <NA>             0.0506
 5 A      2007-01-11 <NA>             0.0506
 6 A      2007-01-12 <NA>             0     
 7 A      2007-01-15 <NA>             0     
 8 A      2007-01-16 <NA>             0     
 9 A      2007-01-17 <NA>             0.558 
10 A      2007-01-18 <NA>             0.319 
# ℹ 34,499,569 more rows
…
