Big Data & Data Visualisation - Introduction to ggplot2
…
In addition to its enhanced visual aesthetics, the utilization of ggplot is motivated by a significantly more crucial factor. The package derives its name from the seminal work “Grammar of Graphics” authored by Leland Wilkinson, denoted by the abbreviation gg. This work laid the foundation for the fundamental structure of an ideal graphing algorithm. As ggplot2 adheres to these principles, one will observe that, while there may be numerous considerations to bear in mind, everything falls into place seamlessly. Once you have attained mastery in this subject matter (and engaged in further supplementary readings), you will possess the capability to generate any requisite diagrams. In my personal opinion, I firmly believe that constructing both simple and intricate plots serves as the optimal approach for comprehending your data and captivating the attention of others towards your research.

Introduction to ggplot

Ggplot2 can be installed standalone, or this package is part of a “package collection” called tidyverse. I highly recommend you to always start your session with loading the tidyverse, since this collection contains many crucial function for data analyses. Thus, depending on whether the package is already downloaded, install install.packages ("tidyverse") or if this is not the first time you use tidyverse on your computer, then load the packages with library(tidyverse).

library(tidyverse)

With ggplot2 we get some additional data tables, for the sake of simplicity we now use diamonds of these. Let’s take a look at them:

diamonds

# A tibble: 53,940 × 10
   carat cut       color clarity depth table price     x     y     z
   <dbl> <ord>     <ord> <ord>   <dbl> <dbl> <int> <dbl> <dbl> <dbl>
 1  0.23 Ideal     E     SI2      61.5    55   326  3.95  3.98  2.43
 2  0.21 Premium   E     SI1      59.8    61   326  3.89  3.84  2.31
 3  0.23 Good      E     VS1      56.9    65   327  4.05  4.07  2.31
 4  0.29 Premium   I     VS2      62.4    58   334  4.2   4.23  2.63
 5  0.31 Good      J     SI2      63.3    58   335  4.34  4.35  2.75
 6  0.24 Very Good J     VVS2     62.8    57   336  3.94  3.96  2.48
 7  0.24 Very Good I     VVS1     62.3    57   336  3.95  3.98  2.47
 8  0.26 Very Good H     SI1      61.9    55   337  4.07  4.11  2.53
 9  0.22 Fair      E     VS2      65.1    61   337  3.87  3.78  2.49
10  0.23 Very Good H     VS1      59.4    61   338  4     4.05  2.39
# ℹ 53,930 more rows
…
$names
[1] "1"

bplot_output has an element named as out. This contains the values of those observations who are outliers based on boxplot. We can simply check if a given observation is in this vector and if it is, then we remove that observation [^It is always more complicated in real life tasks, but fine for now.]. Lets create a function for this step.

outlier_filter <- function(x) {
outlier_value <- boxplot(x, plot = FALSE)$out
x %in% outlier_value # returns TRUE if the given value is an outlier
}

diamonds %>% 
  filter(!outlier_filter(price)) # keep the observation if price is not an outlier

# A tibble: 50,402 × 10
   carat cut       color clarity depth table price     x     y     z
   <dbl> <ord>     <ord> <ord>   <dbl> <dbl> <int> <dbl> <dbl> <dbl>
 1  0.23 Ideal     E     SI2      61.5    55   326  3.95  3.98  2.43
 2  0.21 Premium   E     SI1      59.8    61   326  3.89  3.84  2.31
 3  0.23 Good      E     VS1      56.9    65   327  4.05  4.07  2.31
 4  0.29 Premium   I     VS2      62.4    58   334  4.2   4.23  2.63
 5  0.31 Good      J     SI2      63.3    58   335  4.34  4.35  2.75
 6  0.24 Very Good J     VVS2     62.8    57   336  3.94  3.96  2.48
 7  0.24 Very Good I     VVS1     62.3    57   336  3.95  3.98  2.47
 8  0.26 Very Good H     SI1      61.9    55   337  4.07  4.11  2.53
 9  0.22 Fair      E     VS2      65.1    61   337  3.87  3.78  2.49
10  0.23 Very Good H     VS1      59.4    61   338  4     4.05  2.39
# ℹ 50,392 more rows
…
Position_fill

For any kind of matrix you can use the geom_tile for creating heatmaps. Lets see the correlations!

diamonds %>% 
   select_if(is.numeric) # you can calculate cor only for numerical variables

# A tibble: 53,940 × 7
   carat depth table price     x     y     z
   <dbl> <dbl> <dbl> <int> <dbl> <dbl> <dbl>
 1  0.23  61.5    55   326  3.95  3.98  2.43
 2  0.21  59.8    61   326  3.89  3.84  2.31
 3  0.23  56.9    65   327  4.05  4.07  2.31
 4  0.29  62.4    58   334  4.2   4.23  2.63
 5  0.31  63.3    58   335  4.34  4.35  2.75
 6  0.24  62.8    57   336  3.94  3.96  2.48
 7  0.24  62.3    57   336  3.95  3.98  2.47
 8  0.26  61.9    55   337  4.07  4.11  2.53
 9  0.22  65.1    61   337  3.87  3.78  2.49
10  0.23  59.4    61   338  4     4.05  2.39
# ℹ 53,930 more rows
…
diamonds %>% 
   select_if(is.numeric) %>%  # you can calculate cor only for numerical variables
  cor() %>%  # correlation matrix
  data.frame() %>% 
  rownames_to_column(var = "X") %>% 
  pivot_longer(-X, names_to = "Y")

# A tibble: 49 × 3
   X     Y       value
   <chr> <chr>   <dbl>
 1 carat carat  1     
 2 carat depth  0.0282
 3 carat table  0.182 
 4 carat price  0.922 
 5 carat x      0.975 
 6 carat y      0.952 
 7 carat z      0.953 
 8 depth carat  0.0282
 9 depth depth  1     
10 depth table -0.296 
# ℹ 39 more rows
…
Two variables with two geom_line command

If we need legend:

df %>% 
  filter(geo == "DE") %>% 
  pivot_longer(unemployment:vacancy) # color based on the name

# A tibble: 116 × 4
   geo   time       name         value
   <chr> <date>     <chr>        <dbl>
 1 DE    2023-04-01 unemployment   3  
 2 DE    2023-04-01 vacancy        4.1
 3 DE    2023-01-01 unemployment   3  
 4 DE    2023-01-01 vacancy        4.1
 5 DE    2022-10-01 unemployment   3  
 6 DE    2022-10-01 vacancy        4.4
 7 DE    2022-07-01 unemployment   3.2
 8 DE    2022-07-01 vacancy        4.3
 9 DE    2022-04-01 unemployment   3.1
10 DE    2022-04-01 vacancy        4.5
# ℹ 106 more rows
…
