Big Data & Data Visualisation - Advanced ggplot2
…
$`Az oktató elérhető volt emailben/fogadóórán, kérdéseimre választ kaptam.`
[1] "Teljes mértékben egyet értek" "Inkább nem értek egyet"      
[3] "Inkább egyetértek"           

$`Az oktató módszertani felkészültsége kiváló, jól tanít.`
[1] "Teljes mértékben egyet értek" "Inkább egyetértek"           
[3] "Inkább nem értek egyet"       "Egyáltalán nem értek egyet"  

omhv_df %>% 
  keep(
    ~ all(unique(.) %in% c("Teljes mértékben egyet értek", "Inkább nem értek egyet", "Egyáltalán nem értek egyet", "Inkább egyetértek"))
  )

# A tibble: 40 × 7
   Elérhetőek voltak a kurzus tel…¹ `A tanár felkészült.` A tanár motiváló sze…²
   <chr>                            <chr>                 <chr>                 
 1 Teljes mértékben egyet értek     Teljes mértékben egy… Teljes mértékben egye…
 2 Inkább egyetértek                Teljes mértékben egy… Inkább nem értek egyet
 3 Inkább nem értek egyet           Teljes mértékben egy… Teljes mértékben egye…
 4 Teljes mértékben egyet értek     Teljes mértékben egy… Inkább egyetértek     
 5 Teljes mértékben egyet értek     Teljes mértékben egy… Inkább nem értek egyet
 6 Egyáltalán nem értek egyet       Teljes mértékben egy… Inkább nem értek egyet
 7 Inkább egyetértek                Teljes mértékben egy… Inkább egyetértek     
 8 Inkább nem értek egyet           Inkább nem értek egy… Teljes mértékben egye…
 9 Inkább egyetértek                Inkább egyetértek     Inkább nem értek egyet
10 Teljes mértékben egyet értek     Teljes mértékben egy… Teljes mértékben egye…
# ℹ 30 more rows
# ℹ abbreviated names:
#   ¹​`Elérhetőek voltak a kurzus teljesítéséhez szükséges tananyagok, eszközök.`,
#   ²​`A tanár motiváló személyiség.`
# ℹ 4 more variables:
#   `Az oktató pontosan érkezett és pontosan fejezte be az órát.` <chr>,
#   `Az oktató megfelelően tájékoztatott minket a kurzus teljesítésével kapcsolatban.` <chr>, …
…
