Big Data & Data Visualisation - Causality
…
earnings_df

# A tibble: 647 × 5
   sex      age school    position                    earning
   <chr>  <int> <chr>     <chr>                         <dbl>
 1 male      50 tertiary  Highest leader                2411.
 2 female    51 tertiary  Highest leader                1073.
 3 male      53 tertiary  Highest leader                1990.
 4 female    64 tertiary  Highest leader                1609.
 5 male      32 secondary Department/institute leader    706.
 6 female    33 tertiary  Department/institute leader    994.
 7 female    34 secondary Department/institute leader    632.
 8 male      35 secondary Department/institute leader    512.
 9 male      35 tertiary  Department/institute leader    987.
10 female    35 tertiary  Department/institute leader    880.
# ℹ 637 more rows
…
Exact matching

Lets calculate the difference in each possible group the average earnings.

earnings_df %>% 
  group_by(sex, age, school, position) %>%
  summarise(
    n = n(),
    earning = mean(earning)
  )

# A tibble: 351 × 6
# Groups:   sex, age, school [203]
   sex      age school    position                     n earning
   <chr>  <int> <chr>     <chr>                    <int>   <dbl>
 1 female    24 primary   Clerk/secretary              1    537.
 2 female    24 tertiary  Highly trained clerk         2    406.
 3 female    25 primary   Clerk/secretary              1    342.
 4 female    25 secondary Highly trained clerk         2    450.
 5 female    26 primary   Clerk/secretary              2    373.
 6 female    26 tertiary  Highly trained clerk         1    583.
 7 female    27 primary   Clerk/secretary              1    367.
 8 female    27 secondary Highly trained clerk         1    426 
 9 female    27 secondary Trained/assistant worker     1    327.
10 female    27 tertiary  Highly trained clerk         2    384.
# ℹ 341 more rows
…
earnings_df %>% 
  group_by(sex, age, school, position) %>%
  summarise(
    n = n(),
    earning = mean(earning)
  ) %>% 
  ungroup() %>% 
  pivot_wider(names_from = sex, values_from = c(n, earning)) %>% 
  mutate(
    d = earning_male - earning_female
  ) %>% 
  drop_na()

# A tibble: 79 × 8
     age school    position   n_female n_male earning_female earning_male      d
   <int> <chr>     <chr>         <int>  <int>          <dbl>        <dbl>  <dbl>
 1    26 primary   Clerk/sec…        2      1           373.         587  214.  
 2    27 primary   Clerk/sec…        1      1           367.         342. -24.9 
 3    27 secondary Highly tr…        1      2           426          411  -15   
 4    27 tertiary  Universit…        1      2           227.         279.  51.2 
 5    28 secondary Clerk/sec…        1      1           372.         381.   9.10
 6    29 secondary Clerk/sec…        1      1           311.         575  264.  
 7    31 secondary Highly tr…        1      1           338.         408.  70.8 
 8    32 primary   Clerk/sec…        1      1           250          486. 236.  
 9    34 secondary Clerk/sec…        1      1           321.         376.  54.7 
10    34 tertiary  Highly tr…        2      1           538.         614.  75.4 
# ℹ 69 more rows
…
coarsened_matching_df

# A tibble: 52 × 8
   age_group school   position n_female n_male earning_female earning_male     d
   <fct>     <chr>    <chr>       <int>  <int>          <dbl>        <dbl> <dbl>
 1 (0,30]    primary  Clerk/s…        7      3           401.         422.  20.6
 2 (0,30]    primary  Highly …        1      2           424.         491.  66.8
 3 (0,30]    seconda… Clerk/s…        2      4           341.         400.  58.3
 4 (0,30]    seconda… Highly …        7      2           421.         411  -10.3
 5 (0,30]    seconda… Trained…        1     NA           327.          NA   NA  
 6 (0,30]    seconda… Univers…        1     NA           339.          NA   NA  
 7 (0,30]    tertiary Highly …       10     NA           452.          NA   NA  
 8 (0,30]    tertiary Univers…        1      5           227.         320.  92.6
 9 (30,40]   primary  Clerk/s…        9      5           394.         407.  12.3
10 (30,40]   seconda… Clerk/s…       15      5           390.         434.  43.3
# ℹ 42 more rows
…
