Big Data & Data Visualisation - Web scraping
…
cars_add_df

# A tibble: 2 × 5
  url                                 page       nodes      ad_title url_to_cars
  <chr>                               <list>     <list>     <list>   <list>     
1 https://www.hasznaltauto.hu/talala… <xml_dcmn> <xml_ndst> <chr>    <chr [130]>
2 https://www.hasznaltauto.hu/talala… <xml_dcmn> <xml_ndst> <chr>    <chr [40]> 

From now on, all we need is a column with links and titles, but these are nested. The first cell of the url_to_cars column contains more than a hundred links. This nesting option opens a lot of new doors in the process of data manipulation. Use the unnest function to extract these columns.

cars_add_df %>% 
  select(url_to_cars, ad_title) %>% 
  unnest()

# A tibble: 170 × 2
   url_to_cars                                                          ad_title
   <chr>                                                                <chr>   
 1 <NA>                                                                 P       
 2 https://www.hasznaltauto.hu/szemelyauto/suzuki/vitara/suzuki_vitara… SUZUKI …
 3 https://www.hasznaltauto.hu/szemelyauto/suzuki/vitara/suzuki_vitara… SUZUKI …
 4 <NA>                                                                 P       
 5 https://www.hasznaltauto.hu/szemelyauto/opel/astra_l/opel_astra_l_1… OPEL AS…
 6 https://www.hasznaltauto.hu/szemelyauto/opel/astra_l/opel_astra_l_1… OPEL AS…
 7 <NA>                                                                 P       
 8 https://www.hasznaltauto.hu/szemelyauto/nissan/x-trail/nissan_x-tra… NISSAN …
 9 https://www.hasznaltauto.hu/szemelyauto/nissan/x-trail/nissan_x-tra… NISSAN …
10 <NA>                                                                 P       
# ℹ 160 more rows

We can see that the nodes selection was not entirely perfect (usually not), as there were no matching elements or duplications left.

But now we can still remove the items that don’t fit here. Fortunately, there is no link behind these, and if all columns are the same, unique1 will be our service.

cars_add_df <- cars_add_df %>% 
  select(url_to_cars, ad_title) %>% 
  unnest() %>% 
  na.omit() %>% # remove rows where url_to_cars is missing (NA)
  unique() # delete duplications

cars_add_df

# A tibble: 70 × 2
   url_to_cars                                                          ad_title
   <chr>                                                                <chr>   
 1 https://www.hasznaltauto.hu/szemelyauto/suzuki/vitara/suzuki_vitara… SUZUKI …
 2 https://www.hasznaltauto.hu/szemelyauto/opel/astra_l/opel_astra_l_1… OPEL AS…
 3 https://www.hasznaltauto.hu/szemelyauto/nissan/x-trail/nissan_x-tra… NISSAN …
 4 https://www.hasznaltauto.hu/szemelyauto/nissan/qashqai/nissan_qashq… NISSAN …
 5 https://www.hasznaltauto.hu/szemelyauto/suzuki/s-cross/suzuki_s-cro… SUZUKI …
 6 https://www.hasznaltauto.hu/szemelyauto/peugeot/5008/peugeot_5008_1… PEUGEOT…
 7 https://www.hasznaltauto.hu/szemelyauto/peugeot/3008/peugeot_3008_1… PEUGEOT…
 8 https://www.hasznaltauto.hu/szemelyauto/mazda/6/mazda_6_sportkombi_… MAZDA 6…
 9 https://www.hasznaltauto.hu/szemelyauto/opel/grandland/opel_grandla… OPEL GR…
10 https://www.hasznaltauto.hu/szemelyauto/kia/sorento/kia_sorento_1.6… KIA SOR…
# ℹ 60 more rows
…
A random example of car ad.

You can see that the data is tabulated on the page. This is the best option for us, as you don’t have to search for the item ID on the page one by one (as before with the ad title). You can simply apply the html_table function to a loaded page, which collects all the tables on the it.

car_url <- "https://www.hasznaltauto.hu/szemelyauto/suzuki/vitara/suzuki_vitara_1.4_hybrid_gl_plusz_akar_2.1_millio_ar-elony_plusz_0_thm-18561661#sid=662a20d7-dd8c-4ede-965c-8736e82d6024"

info_tables <- read_html(car_url) %>% 
  html_table(fill = TRUE)

info_tables

[[1]]
# A tibble: 44 × 2
   `Ár, költségek`                                               `Ár, költségek`
   <chr>                                                         <chr>          
 1 "Vételár:"                                                    "Ár nélkül"    
 2 "Általános adatok"                                            "Általános ada…
 3 "Átvehető:"                                                   "2023."        
 4 "Évjárat:"                                                    "2023"         
 5 "Állapot:"                                                    "Normál"       
 6 "Kivitel:"                                                    "Városi terepj…
 7 "Nemzetközi járműelőélet"                                     "Nemzetközi já…
 8 "Informálódj az alvázszámról a nemzetközi autó-előélet szolg… "Informálódj a…
 9 "Hazai járműelőélet"                                          "Hazai járműel…
10 "Informálódj az alvázszámról a magyarországi autó-előélet sz… "Informálódj a…
# ℹ 34 more rows

What is the type of info_tables? Since it collects all the tables it can find from the page, it is a list of data frames.

I will reveal that in some cases we will see that there are multiple tables on a page (certain types of info are taken separately) and we want to avoid an irrelevant single column table causing an error (step 1).

Our goal is to be able to gather all the data about the car into a single two-column table. To join all two column tables (step 3), they must also have the same name (step 2).

info_tables %>% 
  keep(~ ncol(.) == 2) %>%  # keep tables that have 2 columns
  map(set_names, "x", "y") %>%  # set the names to x and y for each table
  bind_rows() # join the tables to one sinle table

# A tibble: 44 × 2
   x                                                                       y    
   <chr>                                                                   <chr>
 1 "Vételár:"                                                              "Ár …
 2 "Általános adatok"                                                      "Ált…
 3 "Átvehető:"                                                             "202…
 4 "Évjárat:"                                                              "202…
 5 "Állapot:"                                                              "Nor…
 6 "Kivitel:"                                                              "Vár…
 7 "Nemzetközi járműelőélet"                                               "Nem…
 8 "Informálódj az alvázszámról a nemzetközi autó-előélet szolgáltatás ha… "Inf…
 9 "Hazai járműelőélet"                                                    "Haz…
10 "Informálódj az alvázszámról a magyarországi autó-előélet szolgáltatás… "Inf…
# ℹ 34 more rows

We see that this works, the output now is one single table. Lets use this method on all the links. To do this, we need to write a function.

get_data <- function(url_to_car) {
  url_to_car %>% 
    read_html() %>% 
    html_table(fill = TRUE) %>% 
    keep(~ ncol(.) == 2) %>% 
    map(~ set_names(., "x", "y")) %>% 
    bind_rows()
}

get_data(car_url)

# A tibble: 44 × 2
   x                                                                       y    
   <chr>                                                                   <chr>
 1 "Vételár:"                                                              "Ár …
 2 "Általános adatok"                                                      "Ált…
 3 "Átvehető:"                                                             "202…
 4 "Évjárat:"                                                              "202…
 5 "Állapot:"                                                              "Nor…
 6 "Kivitel:"                                                              "Vár…
 7 "Nemzetközi járműelőélet"                                               "Nem…
 8 "Informálódj az alvázszámról a nemzetközi autó-előélet szolgáltatás ha… "Inf…
 9 "Hazai járműelőélet"                                                    "Haz…
10 "Informálódj az alvázszámról a magyarországi autó-előélet szolgáltatás… "Inf…
# ℹ 34 more rows
…
Currently, our small table is also nested in a cell. Expand it!

cars_add_df %>% 
  sample_n(size = 3) %>% # remove this line at the end if everything is fine
  mutate(
    data = map(url_to_cars, get_data)
  ) %>% 
  unnest()

# A tibble: 107 × 4
   url_to_cars                                              ad_title x     y    
   <chr>                                                    <chr>    <chr> <chr>
 1 https://www.hasznaltauto.hu/szemelyauto/peugeot/3008/pe… PEUGEOT… "Ala… "9 8…
 2 https://www.hasznaltauto.hu/szemelyauto/peugeot/3008/pe… PEUGEOT… "Ext… "11 …
 3 https://www.hasznaltauto.hu/szemelyauto/peugeot/3008/pe… PEUGEOT… "Akc… "9 8…
 4 https://www.hasznaltauto.hu/szemelyauto/peugeot/3008/pe… PEUGEOT… "Akc… "Érd…
 5 https://www.hasznaltauto.hu/szemelyauto/peugeot/3008/pe… PEUGEOT… "Vét… "€ 2…
 6 https://www.hasznaltauto.hu/szemelyauto/peugeot/3008/pe… PEUGEOT… "Fin… "Fin…
 7 https://www.hasznaltauto.hu/szemelyauto/peugeot/3008/pe… PEUGEOT… "Ált… "Ált…
 8 https://www.hasznaltauto.hu/szemelyauto/peugeot/3008/pe… PEUGEOT… "Átv… "202…
 9 https://www.hasznaltauto.hu/szemelyauto/peugeot/3008/pe… PEUGEOT… "Fut… "Új …
10 https://www.hasznaltauto.hu/szemelyauto/peugeot/3008/pe… PEUGEOT… "Évj… "202…
# ℹ 97 more rows
…
