Big Data & Data Visualisation - Working with Data Bases
…
During this time, the data is not being read. With this, we are only preparing a query, but the data itself is not loaded. Therefore, we can see that the table has ?? number of rows. The data will only be loaded when the collect function is called.

tbl(db, "iris_test") |> 
  collect()

# A tibble: 150 × 5
   Sepal.Length Sepal.Width Petal.Length Petal.Width Species
          <dbl>       <dbl>        <dbl>       <dbl> <chr>  
 1          5.1         3.5          1.4         0.2 setosa 
 2          4.9         3            1.4         0.2 setosa 
 3          4.7         3.2          1.3         0.2 setosa 
 4          4.6         3.1          1.5         0.2 setosa 
 5          5           3.6          1.4         0.2 setosa 
 6          5.4         3.9          1.7         0.4 setosa 
 7          4.6         3.4          1.4         0.3 setosa 
 8          5           3.4          1.5         0.2 setosa 
 9          4.4         2.9          1.4         0.2 setosa 
10          4.9         3.1          1.5         0.1 setosa 
# ℹ 140 more rows

This is important because our dplyr functions are translated into R SQL queries using the dbplyr package, and we only receive the result of the query. Therefore, if we know which rows and columns (or aggregates) of a large gigabyte file we need, we do not need to load the entire dataset.

To expand an existing data table with additional observations, we can utilize the append = TRUE argument of the dbWriteTable() function.

dbWriteTable(db, "iris_test", iris, append = TRUE)
tbl(db, "iris_test") |> 
  collect()

# A tibble: 300 × 5
   Sepal.Length Sepal.Width Petal.Length Petal.Width Species
          <dbl>       <dbl>        <dbl>       <dbl> <chr>  
 1          5.1         3.5          1.4         0.2 setosa 
 2          4.9         3            1.4         0.2 setosa 
 3          4.7         3.2          1.3         0.2 setosa 
 4          4.6         3.1          1.5         0.2 setosa 
 5          5           3.6          1.4         0.2 setosa 
 6          5.4         3.9          1.7         0.4 setosa 
 7          4.6         3.4          1.4         0.3 setosa 
 8          5           3.4          1.5         0.2 setosa 
 9          4.4         2.9          1.4         0.2 setosa 
10          4.9         3.1          1.5         0.1 setosa 
# ℹ 290 more rows
…
# ! date format is coerced to numeric in the db
date_filter <- as.integer(as.Date("2018-12-31") - as.Date("1970-01-01"))

crsp_df <- tbl(db, "crspdaily") |> 
  filter(date > date_filter) |> # after 2018
  inner_join(x = permno_to_ticker, by = c("PERMNO" = "permno")) |>
  collect()

dbDisconnect(db)

crsp_df

# A tibble: 2,748,416 × 18
   PERMNO TICKER  date shrcd siccd cusip    divamt facpr dlret   prc    vol
    <dbl> <chr>  <dbl> <dbl> <dbl> <chr>     <dbl> <dbl> <dbl> <dbl>  <dbl>
 1  10026 JJSF   17898    11  2052 46603210     NA    NA    NA  141  112825
 2  10026 JJSF   17899    11  2052 46603210     NA    NA    NA  143.  84331
 3  10026 JJSF   17900    11  2052 46603210     NA    NA    NA  145.  88233
 4  10026 JJSF   17903    11  2052 46603210     NA    NA    NA  145.  79539
 5  10026 JJSF   17904    11  2052 46603210     NA    NA    NA  149.  70200
 6  10026 JJSF   17905    11  2052 46603210     NA    NA    NA  148.  63591
 7  10026 JJSF   17906    11  2052 46603210     NA    NA    NA  149.  66117
 8  10026 JJSF   17907    11  2052 46603210     NA    NA    NA  149.  58050
 9  10026 JJSF   17910    11  2052 46603210     NA    NA    NA  148.  92311
10  10026 JJSF   17911    11  2052 46603210     NA    NA    NA  146   89393
# ℹ 2,748,406 more rows
# ℹ 7 more variables: ret <dbl>, bid <dbl>, ask <dbl>, shrout <dbl>,
#   openprc <dbl>, numtrd <dbl>, vwretd <dbl>
…
download.file("https://mba.tuck.dartmouth.edu/pages/faculty/ken.french/ftp/F-F_Research_Data_Factors_daily_CSV.zip", t)
unzip(t)
kenneth_factors_df <- read_csv(t, skip = 3)
kenneth_factors_df

# A tibble: 25,587 × 5
   ...1     `Mkt-RF`   SMB   HML    RF
   <chr>       <dbl> <dbl> <dbl> <dbl>
 1 19260701     0.1  -0.25 -0.27 0.009
 2 19260702     0.45 -0.33 -0.06 0.009
 3 19260706     0.17  0.3  -0.39 0.009
 4 19260707     0.09 -0.58  0.02 0.009
 5 19260708     0.21 -0.38  0.19 0.009
 6 19260709    -0.71  0.43  0.57 0.009
 7 19260710     0.62 -0.53 -0.1  0.009
 8 19260712     0.04 -0.03  0.64 0.009
 9 19260713     0.48 -0.28 -0.2  0.009
10 19260714     0.04  0.07 -0.43 0.009
# ℹ 25,577 more rows
…
