Big Data & Data Visualisation - Text mining
…
write_rds(economania_df, file = "economania_df.rds")

library(tidytext)

economania_df %>% 
  filter(lang == "hungarian") |> 
  select(author = author_cleaned, time, text) |> 
  unnest_tokens(word, text) |> 
  mutate(
    word = SnowballC::wordStem(word, language = "hungarian")
  ) |> 
  count(author, word) |> 
  bind_tf_idf(word, author, n)

# A tibble: 10,976 × 6
   author          word      n       tf   idf   tf_idf
   <chr>           <chr> <int>    <dbl> <dbl>    <dbl>
 1 Baranyai Eszter 1         3 0.00214  0.442 0.000945
 2 Baranyai Eszter 10        1 0.000713 0.693 0.000494
 3 Baranyai Eszter 11        1 0.000713 1.95  0.00139 
 4 Baranyai Eszter 12        1 0.000713 1.54  0.00110 
 5 Baranyai Eszter 14        2 0.00143  2.64  0.00376 
 6 Baranyai Eszter 15        1 0.000713 1.54  0.00110 
 7 Baranyai Eszter 1963      1 0.000713 2.64  0.00188 
 8 Baranyai Eszter 1971      1 0.000713 2.64  0.00188 
 9 Baranyai Eszter 1995      1 0.000713 2.64  0.00188 
10 Baranyai Eszter 2         2 0.00143  0.693 0.000988
# ℹ 10,966 more rows
…
